EESchema Schematic File Version 4
EELAYER 26 0
EELAYER END
$Descr A4 11693 8268
encoding utf-8
Sheet 1 1
Title ""
Date ""
Rev ""
Comp ""
Comment1 ""
Comment2 ""
Comment3 ""
Comment4 ""
$EndDescr
$Comp
L ESP8266:NodeMCU_1.0_(ESP-12E) U1
U 1 1 5CA2E391
P 3800 3400
F 0 "U1" H 3800 4593 60  0000 C CNN
F 1 "NodeMCU_1.0_(ESP-12E)" H 3800 4487 60  0000 C CNN
F 2 "ESP8266:NodeMCU-LoLinV3" H 3800 4381 60  0000 C CNN
F 3 "" H 3200 2550 60  0000 C CNN
	1    3800 3400
	1    0    0    -1  
$EndComp
Wire Wire Line
	4600 3300 4950 3300
$Comp
L power:GNDD #PWR0103
U 1 1 5CA540CE
P 4950 4350
F 0 "#PWR0103" H 4950 4100 50  0001 C CNN
F 1 "GNDD" H 4954 4195 50  0000 C CNN
F 2 "" H 4950 4350 50  0001 C CNN
F 3 "" H 4950 4350 50  0001 C CNN
	1    4950 4350
	1    0    0    -1  
$EndComp
$Comp
L power:+3.3V #PWR0104
U 1 1 5CA540F7
P 4800 4100
F 0 "#PWR0104" H 4800 3950 50  0001 C CNN
F 1 "+3.3V" H 4815 4273 50  0000 C CNN
F 2 "" H 4800 4100 50  0001 C CNN
F 3 "" H 4800 4100 50  0001 C CNN
	1    4800 4100
	1    0    0    -1  
$EndComp
Wire Wire Line
	4600 4100 4800 4100
$Comp
L power:+3.3V #PWR0110
U 1 1 5CA611FD
P 5550 1000
F 0 "#PWR0110" H 5550 850 50  0001 C CNN
F 1 "+3.3V" H 5565 1173 50  0000 C CNN
F 2 "" H 5550 1000 50  0001 C CNN
F 3 "" H 5550 1000 50  0001 C CNN
	1    5550 1000
	1    0    0    -1  
$EndComp
$Comp
L power:GNDD #PWR0111
U 1 1 5CA61A07
P 5550 2700
F 0 "#PWR0111" H 5550 2450 50  0001 C CNN
F 1 "GNDD" H 5554 2545 50  0000 C CNN
F 2 "" H 5550 2700 50  0001 C CNN
F 3 "" H 5550 2700 50  0001 C CNN
	1    5550 2700
	1    0    0    -1  
$EndComp
$Comp
L SparkFun-IC-Memory:SF-MicroSD U3
U 1 1 5CA62508
P 6650 2100
F 0 "U3" H 6977 2211 60  0000 L CNN
F 1 "SF-MicroSD" H 6977 2105 60  0000 L CNN
F 2 "SparkFun-Footprints:SF-MICRO-SD" H 6977 1999 60  0000 L CNN
F 3 "" H 6650 1950 60  0000 C CNN
	1    6650 2100
	1    0    0    -1  
$EndComp
Wire Wire Line
	6150 2050 5550 2050
Wire Wire Line
	5550 2050 5550 1100
Wire Wire Line
	6150 2250 5550 2250
Wire Wire Line
	5550 2250 5550 2700
Wire Wire Line
	6150 2350 5200 2350
Wire Wire Line
	5200 2350 5200 3600
Wire Wire Line
	5200 3600 4600 3600
Wire Wire Line
	4600 3500 5150 3500
Wire Wire Line
	5150 3500 5150 1950
Wire Wire Line
	5150 1950 6150 1950
Wire Wire Line
	6150 2150 5100 2150
Wire Wire Line
	5100 2150 5100 3400
Wire Wire Line
	5100 3400 4600 3400
Wire Wire Line
	4600 2900 5300 2900
Wire Wire Line
	5300 2900 5300 1850
Wire Wire Line
	5300 1850 6150 1850
$Comp
L Device:C C1
U 1 1 5CA6A3DC
P 5250 1350
F 0 "C1" H 5365 1396 50  0000 L CNN
F 1 "2.2uF" H 5365 1305 50  0000 L CNN
F 2 "Capacitor_SMD:C_0805_2012Metric_Pad1.15x1.40mm_HandSolder" H 5288 1200 50  0001 C CNN
F 3 "~" H 5250 1350 50  0001 C CNN
	1    5250 1350
	1    0    0    -1  
$EndComp
Wire Wire Line
	5250 1200 5250 1100
Wire Wire Line
	5250 1100 5550 1100
Connection ~ 5550 1100
Wire Wire Line
	5550 1100 5550 1000
$Comp
L power:GNDD #PWR0109
U 1 1 5CA6CFAC
P 5250 1600
F 0 "#PWR0109" H 5250 1350 50  0001 C CNN
F 1 "GNDD" H 5254 1445 50  0000 C CNN
F 2 "" H 5250 1600 50  0001 C CNN
F 3 "" H 5250 1600 50  0001 C CNN
	1    5250 1600
	1    0    0    -1  
$EndComp
Wire Wire Line
	5250 1600 5250 1500
$Comp
L Device:LED D2
U 1 1 5CA7206A
P 2250 1950
F 0 "D2" V 2288 1832 50  0000 R CNN
F 1 "LED_COM" V 2197 1832 50  0000 R CNN
F 2 "LED_THT:LED_D3.0mm" H 2250 1950 50  0001 C CNN
F 3 "~" H 2250 1950 50  0001 C CNN
	1    2250 1950
	0    -1   -1   0   
$EndComp
$Comp
L Device:LED D3
U 1 1 5CA740BD
P 2750 1950
F 0 "D3" V 2788 1832 50  0000 R CNN
F 1 "LED_PWR" V 2697 1832 50  0000 R CNN
F 2 "LED_THT:LED_D3.0mm" H 2750 1950 50  0001 C CNN
F 3 "~" H 2750 1950 50  0001 C CNN
	1    2750 1950
	0    -1   -1   0   
$EndComp
$Comp
L Device:LED D1
U 1 1 5CA75019
P 1750 1950
F 0 "D1" V 1788 1832 50  0000 R CNN
F 1 "LED_WIFI" V 1697 1832 50  0000 R CNN
F 2 "LED_THT:LED_D3.0mm" H 1750 1950 50  0001 C CNN
F 3 "~" H 1750 1950 50  0001 C CNN
	1    1750 1950
	0    -1   -1   0   
$EndComp
Wire Wire Line
	4600 2700 5000 2700
Wire Wire Line
	4600 2800 5000 2800
Text Label 5000 2700 2    50   ~ 0
LED_WIFI
Text Label 5000 2800 2    50   ~ 0
LED_COM
Text Label 3750 1050 2    50   ~ 0
LED_WIFI
Text Label 3750 1150 2    50   ~ 0
LED_COM
Wire Wire Line
	2250 1150 3750 1150
Wire Wire Line
	1750 1050 3750 1050
$Comp
L power:+3.3V #PWR0112
U 1 1 5CA8167E
P 2750 900
F 0 "#PWR0112" H 2750 750 50  0001 C CNN
F 1 "+3.3V" H 2765 1073 50  0000 C CNN
F 2 "" H 2750 900 50  0001 C CNN
F 3 "" H 2750 900 50  0001 C CNN
	1    2750 900 
	1    0    0    -1  
$EndComp
$Comp
L power:GNDD #PWR0113
U 1 1 5CA82A40
P 2750 2350
F 0 "#PWR0113" H 2750 2100 50  0001 C CNN
F 1 "GNDD" H 2754 2195 50  0000 C CNN
F 2 "" H 2750 2350 50  0001 C CNN
F 3 "" H 2750 2350 50  0001 C CNN
	1    2750 2350
	1    0    0    -1  
$EndComp
Wire Wire Line
	2750 2100 2750 2250
Wire Wire Line
	2250 2100 2250 2250
Wire Wire Line
	2250 2250 2750 2250
Connection ~ 2750 2250
Wire Wire Line
	2750 2250 2750 2350
Wire Wire Line
	1750 2100 1750 2250
Wire Wire Line
	1750 2250 2250 2250
Connection ~ 2250 2250
$Comp
L Device:R R1
U 1 1 5CA89B56
P 1750 1500
F 0 "R1" H 1820 1546 50  0000 L CNN
F 1 "4.7K" H 1820 1455 50  0000 L CNN
F 2 "Resistor_SMD:R_0805_2012Metric_Pad1.15x1.40mm_HandSolder" V 1680 1500 50  0001 C CNN
F 3 "~" H 1750 1500 50  0001 C CNN
	1    1750 1500
	1    0    0    -1  
$EndComp
$Comp
L Device:R R2
U 1 1 5CA90B1E
P 2250 1500
F 0 "R2" H 2320 1546 50  0000 L CNN
F 1 "4.7K" H 2320 1455 50  0000 L CNN
F 2 "Resistor_SMD:R_0805_2012Metric_Pad1.15x1.40mm_HandSolder" V 2180 1500 50  0001 C CNN
F 3 "~" H 2250 1500 50  0001 C CNN
	1    2250 1500
	1    0    0    -1  
$EndComp
$Comp
L Device:R R3
U 1 1 5CA92159
P 2750 1500
F 0 "R3" H 2820 1546 50  0000 L CNN
F 1 "4.7K" H 2820 1455 50  0000 L CNN
F 2 "Resistor_SMD:R_0805_2012Metric_Pad1.15x1.40mm_HandSolder" V 2680 1500 50  0001 C CNN
F 3 "~" H 2750 1500 50  0001 C CNN
	1    2750 1500
	1    0    0    -1  
$EndComp
Wire Wire Line
	2750 1650 2750 1800
Wire Wire Line
	2250 1650 2250 1800
Wire Wire Line
	1750 1650 1750 1800
Wire Wire Line
	1750 1050 1750 1350
Wire Wire Line
	2250 1150 2250 1350
Wire Wire Line
	2750 900  2750 1350
Wire Wire Line
	4950 3300 4950 4350
$Comp
L Device:R R4
U 1 1 5CB000EF
P 2500 6300
F 0 "R4" V 2707 6300 50  0000 C CNN
F 1 "0.3" V 2616 6300 50  0000 C CNN
F 2 "Resistor_THT:R_Axial_Power_L20.0mm_W6.4mm_P30.48mm" V 2430 6300 50  0001 C CNN
F 3 "~" H 2500 6300 50  0001 C CNN
	1    2500 6300
	0    -1   -1   0   
$EndComp
$Comp
L Connector_Generic:Conn_01x01 J2
U 1 1 5CB01BEE
P 1600 6300
F 0 "J2" H 1520 6075 50  0000 C CNN
F 1 "Conn_01x01" H 1520 6166 50  0000 C CNN
F 2 "TestPoint:TestPoint_THTPad_4.0x4.0mm_Drill2.0mm" H 1600 6300 50  0001 C CNN
F 3 "~" H 1600 6300 50  0001 C CNN
	1    1600 6300
	-1   0    0    1   
$EndComp
$Comp
L Connector_Generic:Conn_01x01 J4
U 1 1 5CB01CC5
P 4650 6300
F 0 "J4" H 4730 6342 50  0000 L CNN
F 1 "Conn_01x01" H 4730 6251 50  0000 L CNN
F 2 "TestPoint:TestPoint_THTPad_4.0x4.0mm_Drill2.0mm" H 4650 6300 50  0001 C CNN
F 3 "~" H 4650 6300 50  0001 C CNN
	1    4650 6300
	1    0    0    -1  
$EndComp
Text Notes 2000 5050 0    50   ~ 0
Current Flow 10A ---->
$Comp
L Connector_Generic:Conn_01x01 J3
U 1 1 5CB02F7A
P 4500 5150
F 0 "J3" H 4580 5192 50  0000 L CNN
F 1 "Conn_01x01" H 4580 5101 50  0000 L CNN
F 2 "TestPoint:TestPoint_THTPad_4.0x4.0mm_Drill2.0mm" H 4500 5150 50  0001 C CNN
F 3 "~" H 4500 5150 50  0001 C CNN
	1    4500 5150
	1    0    0    -1  
$EndComp
$Comp
L Connector_Generic:Conn_01x01 J1
U 1 1 5CB02FB6
P 1600 5150
F 0 "J1" H 1520 4925 50  0000 C CNN
F 1 "Conn_01x01" H 1520 5016 50  0000 C CNN
F 2 "TestPoint:TestPoint_THTPad_4.0x4.0mm_Drill2.0mm" H 1600 5150 50  0001 C CNN
F 3 "~" H 1600 5150 50  0001 C CNN
	1    1600 5150
	-1   0    0    1   
$EndComp
Wire Wire Line
	1800 5150 2950 5150
Text Notes 1500 4850 0    50   ~ 0
IN+
Text Notes 1500 6050 0    50   ~ 0
IN-
$Comp
L power:GNDD #PWR0101
U 1 1 5CB06A47
P 2100 6550
F 0 "#PWR0101" H 2100 6300 50  0001 C CNN
F 1 "GNDD" H 2104 6395 50  0000 C CNN
F 2 "" H 2100 6550 50  0001 C CNN
F 3 "" H 2100 6550 50  0001 C CNN
	1    2100 6550
	1    0    0    -1  
$EndComp
Wire Wire Line
	2100 6550 2100 6300
Text Notes 3700 6500 2    50   ~ 0
<----- Current Flow 10A
Wire Wire Line
	2950 6300 2950 5800
Text Notes 4600 6650 0    50   ~ 0
OUT-
Text Notes 4300 5000 0    50   ~ 0
OUT+
Text Label 1850 5800 2    50   ~ 0
curr_sense
$Comp
L Device:R R5
U 1 1 5CB195B1
P 2550 5800
F 0 "R5" V 2757 5800 50  0000 C CNN
F 1 "10K" V 2666 5800 50  0000 C CNN
F 2 "Resistor_SMD:R_0805_2012Metric_Pad1.15x1.40mm_HandSolder" V 2480 5800 50  0001 C CNN
F 3 "~" H 2550 5800 50  0001 C CNN
	1    2550 5800
	0    -1   -1   0   
$EndComp
Wire Wire Line
	2650 6300 2700 6300
Connection ~ 2950 6300
Wire Wire Line
	1800 6300 2100 6300
Connection ~ 2100 6300
Wire Wire Line
	2100 6300 2300 6300
$Comp
L Device:R_POT RV1
U 1 1 5CB38E3C
P 2950 5500
F 0 "RV1" H 2880 5546 50  0000 R CNN
F 1 "R_POT" H 2880 5455 50  0000 R CNN
F 2 "Potentiometer_SMD:Potentiometer_Bourns_3314J_Vertical" H 2950 5500 50  0001 C CNN
F 3 "~" H 2950 5500 50  0001 C CNN
	1    2950 5500
	1    0    0    -1  
$EndComp
Wire Wire Line
	2950 5350 2950 5150
Connection ~ 2950 5150
Wire Wire Line
	2950 5150 4300 5150
Wire Wire Line
	2700 5800 2950 5800
Connection ~ 2950 5800
Wire Wire Line
	2950 5800 2950 5650
$Comp
L Device:R R6
U 1 1 5CB4230A
P 3400 5500
F 0 "R6" V 3607 5500 50  0000 C CNN
F 1 "10K" V 3516 5500 50  0000 C CNN
F 2 "Resistor_SMD:R_0805_2012Metric_Pad1.15x1.40mm_HandSolder" V 3330 5500 50  0001 C CNN
F 3 "~" H 3400 5500 50  0001 C CNN
	1    3400 5500
	0    -1   -1   0   
$EndComp
Wire Wire Line
	3250 5500 3100 5500
Text Label 4450 5500 2    50   ~ 0
volt_sense
$Comp
L 4xxx:4051 U2
U 1 1 5CB54788
P 9300 4450
F 0 "U2" H 9841 4496 50  0000 L CNN
F 1 "4051" H 9841 4405 50  0000 L CNN
F 2 "Package_SO:SOIC-16_3.9x9.9mm_P1.27mm" H 9300 4450 50  0001 C CNN
F 3 "http://www.intersil.com/content/dam/Intersil/documents/cd40/cd4051bms-52bms-53bms.pdf" H 9300 4450 50  0001 C CNN
	1    9300 4450
	1    0    0    -1  
$EndComp
$Comp
L power:GNDD #PWR0102
U 1 1 5CB549D1
P 9300 5550
F 0 "#PWR0102" H 9300 5300 50  0001 C CNN
F 1 "GNDD" H 9304 5395 50  0000 C CNN
F 2 "" H 9300 5550 50  0001 C CNN
F 3 "" H 9300 5550 50  0001 C CNN
	1    9300 5550
	1    0    0    -1  
$EndComp
Wire Wire Line
	9300 5550 9300 5450
Wire Wire Line
	9400 5350 9400 5450
Wire Wire Line
	9400 5450 9300 5450
Connection ~ 9300 5450
Wire Wire Line
	9300 5450 9300 5350
$Comp
L power:+3.3V #PWR0105
U 1 1 5CB59BCA
P 9300 3200
F 0 "#PWR0105" H 9300 3050 50  0001 C CNN
F 1 "+3.3V" H 9315 3373 50  0000 C CNN
F 2 "" H 9300 3200 50  0001 C CNN
F 3 "" H 9300 3200 50  0001 C CNN
	1    9300 3200
	1    0    0    -1  
$EndComp
Wire Wire Line
	9300 3550 9300 3200
Wire Wire Line
	8800 3850 8150 3850
Text Label 8150 3850 0    50   ~ 0
volt_sense
Text Label 5600 4800 0    50   ~ 0
curr_sense
Wire Wire Line
	5600 4800 6200 4800
Wire Wire Line
	9800 3850 10500 3850
Text Label 10500 3850 2    50   ~ 0
MUXED_ANALOG
Wire Wire Line
	3000 2700 2300 2700
Text Label 2300 2700 0    50   ~ 0
MUXED_ANALOG
Text Label 3100 5150 0    50   ~ 0
IN_XV
Text Label 3200 6300 0    50   ~ 0
OUT_0V
Wire Wire Line
	8800 4850 8200 4850
Wire Wire Line
	8800 4950 8200 4950
Wire Wire Line
	8800 5050 8200 5050
Text Label 8200 4850 0    50   ~ 0
MUX1
Text Label 8200 4950 0    50   ~ 0
MUX2
Text Label 8200 5050 0    50   ~ 0
MUX3
Wire Wire Line
	8800 4750 8700 4750
Wire Wire Line
	8700 5450 9300 5450
Wire Wire Line
	8700 4750 8700 5450
$Comp
L Amplifier_Operational:MCP6001R U4
U 1 1 5CB8ABB3
P 6500 4900
F 0 "U4" H 6841 4946 50  0000 L CNN
F 1 "MCP6001R" H 6841 4855 50  0000 L CNN
F 2 "Package_TO_SOT_SMD:SOT-23-5" H 6500 4900 50  0001 C CNN
F 3 "http://ww1.microchip.com/downloads/en/DeviceDoc/21733j.pdf" H 6500 5100 50  0001 C CNN
	1    6500 4900
	1    0    0    -1  
$EndComp
$Comp
L power:+3.3V #PWR0106
U 1 1 5CB8E199
P 6400 4050
F 0 "#PWR0106" H 6400 3900 50  0001 C CNN
F 1 "+3.3V" H 6415 4223 50  0000 C CNN
F 2 "" H 6400 4050 50  0001 C CNN
F 3 "" H 6400 4050 50  0001 C CNN
	1    6400 4050
	1    0    0    -1  
$EndComp
Wire Wire Line
	6400 4050 6400 4600
$Comp
L power:GNDD #PWR0107
U 1 1 5CB8FAE7
P 6400 6000
F 0 "#PWR0107" H 6400 5750 50  0001 C CNN
F 1 "GNDD" H 6404 5845 50  0000 C CNN
F 2 "" H 6400 6000 50  0001 C CNN
F 3 "" H 6400 6000 50  0001 C CNN
	1    6400 6000
	1    0    0    -1  
$EndComp
Wire Wire Line
	6400 6000 6400 5200
Wire Wire Line
	3000 3000 2400 3000
Wire Wire Line
	3000 3100 2400 3100
Wire Wire Line
	3000 3200 2400 3200
Text Label 2400 3000 0    50   ~ 0
MUX1
Text Label 2400 3100 0    50   ~ 0
MUX2
Text Label 2400 3200 0    50   ~ 0
MUX3
$Comp
L Device:R R9
U 1 1 5CB99E06
P 7100 5700
F 0 "R9" H 7170 5746 50  0000 L CNN
F 1 "2K" H 7170 5655 50  0000 L CNN
F 2 "Resistor_SMD:R_0805_2012Metric_Pad1.15x1.40mm_HandSolder" V 7030 5700 50  0001 C CNN
F 3 "~" H 7100 5700 50  0001 C CNN
	1    7100 5700
	1    0    0    -1  
$EndComp
$Comp
L Device:R R8
U 1 1 5CB99EE9
P 7100 5250
F 0 "R8" H 7170 5296 50  0000 L CNN
F 1 "47K" H 7170 5205 50  0000 L CNN
F 2 "Resistor_SMD:R_0805_2012Metric_Pad1.15x1.40mm_HandSolder" V 7030 5250 50  0001 C CNN
F 3 "~" H 7100 5250 50  0001 C CNN
	1    7100 5250
	1    0    0    -1  
$EndComp
Wire Wire Line
	6800 4900 7100 4900
Wire Wire Line
	7100 4900 7100 5100
Wire Wire Line
	7100 5400 7100 5500
$Comp
L power:GNDD #PWR0108
U 1 1 5CB9DA92
P 7100 6000
F 0 "#PWR0108" H 7100 5750 50  0001 C CNN
F 1 "GNDD" H 7104 5845 50  0000 C CNN
F 2 "" H 7100 6000 50  0001 C CNN
F 3 "" H 7100 6000 50  0001 C CNN
	1    7100 6000
	1    0    0    -1  
$EndComp
Wire Wire Line
	7100 6000 7100 5850
Wire Wire Line
	7100 5500 5800 5500
Wire Wire Line
	5800 5500 5800 5000
Wire Wire Line
	5800 5000 6200 5000
Connection ~ 7100 5500
Wire Wire Line
	7100 5500 7100 5550
Text Notes 6750 4700 0    50   ~ 0
Gain = 24.5 non inverting
Text Label 7750 4900 2    50   ~ 0
curr_sense_amp
Wire Wire Line
	7750 4900 7100 4900
Connection ~ 7100 4900
Text Label 8150 3950 0    50   ~ 0
curr_sense_amp
Wire Wire Line
	8150 3950 8800 3950
$Comp
L Device:R R7
U 1 1 5CBBBBD3
P 2500 6150
F 0 "R7" V 2707 6150 50  0000 C CNN
F 1 "0.3" V 2616 6150 50  0000 C CNN
F 2 "Resistor_THT:R_Axial_Power_L20.0mm_W6.4mm_P30.48mm" V 2430 6150 50  0001 C CNN
F 3 "~" H 2500 6150 50  0001 C CNN
	1    2500 6150
	0    -1   -1   0   
$EndComp
Wire Wire Line
	2350 6150 2300 6150
Wire Wire Line
	2300 6150 2300 6300
Connection ~ 2300 6300
Wire Wire Line
	2300 6300 2350 6300
Wire Wire Line
	2650 6150 2700 6150
Wire Wire Line
	2700 6150 2700 6300
Connection ~ 2700 6300
Wire Wire Line
	2700 6300 2950 6300
Wire Wire Line
	1500 5800 2400 5800
Wire Wire Line
	3550 5500 4450 5500
Wire Wire Line
	2950 6300 4450 6300
$Comp
L glue_dispenser:MP2307DN-MOD PS1
U 1 1 5CBC6536
P 1400 4200
F 0 "PS1" H 1400 4565 50  0000 C CNN
F 1 "MP2307DN-MOD" H 1400 4474 50  0000 C CNN
F 2 "glue_dispenser:MP2307DN-MOD" H 1350 4500 50  0001 C CNN
F 3 "" H 1350 4500 50  0001 C CNN
	1    1400 4200
	1    0    0    -1  
$EndComp
Text Label 650  4100 0    50   ~ 0
IN_XV
Wire Wire Line
	650  4100 1000 4100
$Comp
L power:GNDD #PWR0114
U 1 1 5CBE997A
P 850 4650
F 0 "#PWR0114" H 850 4400 50  0001 C CNN
F 1 "GNDD" H 854 4495 50  0000 C CNN
F 2 "" H 850 4650 50  0001 C CNN
F 3 "" H 850 4650 50  0001 C CNN
	1    850  4650
	1    0    0    -1  
$EndComp
Wire Wire Line
	1000 4350 850  4350
Wire Wire Line
	850  4350 850  4550
Wire Wire Line
	1800 4550 850  4550
Connection ~ 850  4550
Wire Wire Line
	850  4550 850  4650
Wire Wire Line
	1800 4100 3000 4100
Wire Wire Line
	1800 4350 1800 4550
Text Label 2150 4100 0    50   ~ 0
VIN
$EndSCHEMATC
